sim.vcd
$date
	Wed Jan  8 15:49:01 2025
$end
$version
	Icarus Verilog
$end
$timescale
	1ps
$end
$scope module testbench $end
$var wire 8 ! write_data_dmem [7:0] $end
$var wire 4 " write_addr_dmem [3:0] $end
$var wire 8 # read_data_dmem [7:0] $end
$var wire 4 $ read_addr_dmem [3:0] $end
$var wire 1 % pc_branch $end
$var wire 5 & next_inst_addr [4:0] $end
$var wire 5 ' curr_inst_addr [4:0] $end
$var wire 16 ( curr_inst [15:0] $end
$var reg 1 ) clk $end
$var reg 1 * reset $end
$scope module dut $end
$var wire 1 ) clk $end
$var wire 1 * reset $end
$var wire 8 + write_data_dmem [7:0] $end
$var wire 4 , write_addr_dmem [3:0] $end
$var wire 8 - read_data_dummy [7:0] $end
$var wire 8 . read_data_dmem [7:0] $end
$var wire 4 / read_addr_dmem [3:0] $end
$var wire 1 % pc_branch $end
$var wire 5 0 next_inst_addr [4:0] $end
$var wire 1 1 memW $end
$var wire 1 2 halt $end
$var wire 5 3 curr_inst_addr [4:0] $end
$var wire 16 4 curr_inst [15:0] $end
$var reg 4 5 read_addr_dummy [3:0] $end
$scope module dmem $end
$var wire 1 ) clk $end
$var wire 4 6 read_addr_2 [3:0] $end
$var wire 8 7 read_data_1 [7:0] $end
$var wire 8 8 read_data_2 [7:0] $end
$var wire 1 * reset $end
$var wire 1 1 write_enable $end
$var wire 8 9 write_data [7:0] $end
$var wire 4 : write_addr [3:0] $end
$var wire 4 ; read_addr_1 [3:0] $end
$scope begin $ivl_for_loop1 $end
$var integer 32 < i [31:0] $end
$upscope $end
$upscope $end
$scope module imem $end
$var wire 16 = read_data [15:0] $end
$var wire 5 > read_addr [4:0] $end
$upscope $end
$scope module pc $end
$var wire 1 ) clk $end
$var wire 1 ? enable $end
$var wire 1 * reset $end
$var wire 1 % pc_src $end
$var wire 5 @ next_inst_addr [4:0] $end
$var wire 1 2 halt $end
$var reg 5 A curr_inst_addr [4:0] $end
$upscope $end
$scope module processor $end
$var wire 1 ) clk $end
$var wire 16 B curr_inst [15:0] $end
$var wire 5 C curr_inst_addr [4:0] $end
$var wire 8 D read_data_dmem [7:0] $end
$var wire 1 * reset $end
$var wire 8 E write_data_dmem [7:0] $end
$var wire 4 F write_addr_dmem [3:0] $end
$var wire 1 G regW $end
$var wire 4 H read_addr_dmem [3:0] $end
$var wire 1 % pc_branch $end
$var wire 5 I next_inst_addr [4:0] $end
$var wire 1 J mem_to_reg $end
$var wire 1 1 memW $end
$var wire 1 2 halt $end
$var wire 1 K branch $end
$var wire 1 L aluF $end
$var wire 1 M addition $end
$scope module cc $end
$var wire 3 N op [2:0] $end
$var wire 1 G regW $end
$var wire 1 J mem_to_reg $end
$var wire 1 1 memW $end
$var wire 1 2 halt $end
$var wire 1 K branch $end
$var wire 1 L aluF $end
$var wire 1 M addition $end
$var reg 7 O controls [6:0] $end
$upscope $end
$scope module dp $end
$var wire 1 M addition $end
$var wire 1 L aluF $end
$var wire 1 K branch $end
$var wire 1 ) clk $end
$var wire 16 P curr_inst [15:0] $end
$var wire 5 Q curr_inst_addr [4:0] $end
$var wire 1 R immbit_not_addition $end
$var wire 1 J mem_to_reg $end
$var wire 1 % pc_branch $end
$var wire 8 S read_data_dmem [7:0] $end
$var wire 1 G regW $end
$var wire 1 * reset $end
$var wire 1 T zero $end
$var wire 8 U write_data_rf [7:0] $end
$var wire 8 V write_data_dmem [7:0] $end
$var wire 4 W write_addr_rf [3:0] $end
$var wire 4 X write_addr_dmem [3:0] $end
$var wire 8 Y res_mux_out [7:0] $end
$var wire 4 Z read_addr_dmem [3:0] $end
$var wire 5 [ next_inst_addr [4:0] $end
$var wire 1 \ immbit $end
$var wire 5 ] cur_addr_plus_1 [4:0] $end
$var wire 8 ^ aluR [7:0] $end
$var wire 8 _ aluB [7:0] $end
$var wire 8 ` aluA [7:0] $end
$var reg 1 a immbit_addition $end
$scope module a1 $end
$var wire 5 b a [4:0] $end
$var wire 5 c b [4:0] $end
$var wire 5 d c [4:0] $end
$var parameter 32 e WIDTH $end
$upscope $end
$scope module alu $end
$var wire 1 L f $end
$var wire 1 T zero $end
$var wire 8 f q [7:0] $end
$var wire 8 g p [7:0] $end
$var wire 8 h b [7:0] $end
$var wire 8 i a [7:0] $end
$var reg 8 j y [7:0] $end
$scope module add $end
$var wire 8 k c [7:0] $end
$var wire 8 l b [7:0] $end
$var wire 8 m a [7:0] $end
$var parameter 32 n WIDTH $end
$upscope $end
$scope module sub $end
$var wire 8 o c [7:0] $end
$var wire 8 p b [7:0] $end
$var wire 8 q a [7:0] $end
$upscope $end
$upscope $end
$scope module pc_mux $end
$var wire 5 r d0 [4:0] $end
$var wire 5 s d1 [4:0] $end
$var wire 1 % s $end
$var wire 5 t y [4:0] $end
$var parameter 32 u WIDTH $end
$upscope $end
$scope module res_mux $end
$var wire 8 v d0 [7:0] $end
$var wire 8 w d1 [7:0] $end
$var wire 1 J s $end
$var wire 8 x y [7:0] $end
$var parameter 32 y WIDTH $end
$upscope $end
$scope module rf $end
$var wire 1 ) clk $end
$var wire 4 z read_addr_1 [3:0] $end
$var wire 4 { read_addr_2 [3:0] $end
$var wire 8 | read_data_1 [7:0] $end
$var wire 8 } read_data_2 [7:0] $end
$var wire 1 * reset $end
$var wire 1 G write_enable $end
$var wire 8 ~ write_data [7:0] $end
$var wire 4 !" write_addr [3:0] $end
$scope begin $ivl_for_loop2 $end
$var integer 32 "" i [31:0] $end
$upscope $end
$upscope $end
$scope module wa_dmem_mux $end
$var wire 4 #" d0 [3:0] $end
$var wire 4 $" d1 [3:0] $end
$var wire 1 \ s $end
$var wire 4 %" y [3:0] $end
$var parameter 32 &" WIDTH $end
$upscope $end
$scope module wa_rf_mux $end
$var wire 4 '" d0 [3:0] $end
$var wire 4 (" d1 [3:0] $end
$var wire 1 a s $end
$var wire 4 )" y [3:0] $end
$var parameter 32 *" WIDTH $end
$upscope $end
$scope module wd_dmem_mux $end
$var wire 8 +" d0 [7:0] $end
$var wire 8 ," d1 [7:0] $end
$var wire 1 \ s $end
$var wire 8 -" y [7:0] $end
$var parameter 32 ." WIDTH $end
$upscope $end
$scope module wd_rf_mux $end
$var wire 8 /" d0 [7:0] $end
$var wire 8 0" d1 [7:0] $end
$var wire 1 R s $end
$var wire 8 1" y [7:0] $end
$var parameter 32 2" WIDTH $end
$upscope $end
$upscope $end
$upscope $end
$upscope $end
$scope begin $ivl_for_loop0 $end
$var integer 32 3" i [31:0] $end
$upscope $end
$upscope $end
$enddefinitions $end
$comment Show the parameter values. $end
$dumpall
b1000 2"
b1000 ."
b100 *"
b100 &"
b1000 y
b101 u
b1000 n
b101 e
$end
#0
$dumpvars
b0 3"
bx 1"
bx 0"
bx /"
bx -"
bx ,"
bx +"
bx )"
bx ("
bx '"
bx %"
bx $"
bx #"
b0 ""
bx !"
bx ~
bx }
bx |
bx {
bx z
bx x
bx w
bx v
bx t
bx s
bx r
bx q
bx p
bx o
bx m
bx l
bx k
bx j
bx i
bx h
bx g
bx f
bx d
b1 c
bx b
0a
bx `
bx _
bx ^
bx ]
x\
bx [
bx Z
bx Y
bx X
bx W
bx V
bx U
xT
bx S
xR
bx Q
bx P
bx O
bx N
xM
xL
xK
xJ
bx I
bx H
xG
bx F
bx E
bx D
bx C
bx B
bx A
bx @
1?
bx >
bx =
b0 <
bx ;
bx :
bx 9
bx 8
bx 7
bx 6
bx 5
bx 4
bx 3
x2
x1
bx 0
bx /
bx .
bx -
bx ,
bx +
1*
0)
bx (
bx '
bx &
x%
bx $
bx #
bx "
bx !
$end
#1000
b100 U
b100 ~
b100 1"
b0 Y
b0 x
b0 /"
1R
b0 ^
b0 j
b0 v
0%
1G
01
1J
0M
0L
0K
02
b1010000 O
1a
b0 "
b0 ,
b0 :
b0 F
b0 X
b0 %"
b100 !
b100 +
b100 9
b100 E
b100 V
b100 -"
b0 W
b0 !"
b0 )"
b1 &
b1 0
b1 @
b1 I
b1 [
b1 t
b1 N
1\
b0 #"
b0 $"
b100 ,"
b10000 s
1T
b0 f
b0 o
b0 g
b0 k
b0 `
b0 i
b0 m
b0 q
b0 |
b0 z
b0 _
b0 h
b0 l
b0 p
b0 }
b0 +"
b100 {
b0 '"
b0 ("
b100 0"
b0 #
b0 .
b0 7
b0 D
b0 S
b0 w
b100 $
b100 /
b100 ;
b100 H
b100 Z
b1 ]
b1 d
b1 r
b11000000000100 (
b11000000000100 4
b11000000000100 =
b11000000000100 B
b11000000000100 P
b0 '
b0 3
b0 >
b0 A
b0 C
b0 Q
b0 b
b10000 <
b10000 ""
1)
#2000
0*
0)
#7000
b1 "
b1 ,
b1 :
b1 F
b1 X
b1 %"
b101 !
b101 +
b101 9
b101 E
b101 V
b101 -"
b1 W
b1 !"
b1 )"
b101 U
b101 ~
b101 1"
b10 &
b10 0
b10 @
b10 I
b10 [
b10 t
b1 $"
b101 ,"
b10001 s
b101 {
b1 ("
b101 0"
b101 $
b101 /
b101 ;
b101 H
b101 Z
b100 ^
b100 j
b100 v
b10 ]
b10 d
b10 r
b11000100000101 (
b11000100000101 4
b11000100000101 =
b11000100000101 B
b11000100000101 P
b1 '
b1 3
b1 >
b1 A
b1 C
b1 Q
b1 b
0T
b100 f
b100 o
b100 g
b100 k
b100 `
b100 i
b100 m
b100 q
b100 |
b1 3"
1)
#12000
b10 3"
0)
#17000
b100 "
b100 ,
b100 :
b100 F
b100 X
b100 %"
b1111 !
b1111 +
b1111 9
b1111 E
b1111 V
b1111 -"
b100 W
b100 !"
b100 )"
b1111 U
b1111 ~
b1111 1"
b11 &
b11 0
b11 @
b11 I
b11 [
b11 t
b100 $"
b1111 ,"
b10100 s
b1111 {
b100 ("
b1111 0"
b1111 $
b1111 /
b1111 ;
b1111 H
b1111 Z
b11 ]
b11 d
b11 r
b11010000001111 (
b11010000001111 4
b11010000001111 =
b11010000001111 B
b11010000001111 P
b10 '
b10 3
b10 >
b10 A
b10 C
b10 Q
b10 b
b11 3"
1)
#22000
b100 3"
0)
#27000
b101 "
b101 ,
b101 :
b101 F
b101 X
b101 %"
b110 !
b110 +
b110 9
b110 E
b110 V
b110 -"
b101 W
b101 !"
b101 )"
b110 U
b110 ~
b110 1"
b100 &
b100 0
b100 @
b100 I
b100 [
b100 t
b101 $"
b110 ,"
b10101 s
b110 {
b101 ("
b110 0"
b110 $
b110 /
b110 ;
b110 H
b110 Z
b100 ]
b100 d
b100 r
b11010100000110 (
b11010100000110 4
b11010100000110 =
b11010100000110 B
b11010100000110 P
b11 '
b11 3
b11 >
b11 A
b11 C
b11 Q
b11 b
b101 3"
1)
#32000
b110 3"
0)
#37000
b1000 Y
b1000 x
b1000 /"
0G
11
0J
b100000 O
0a
0R
b0 "
b0 ,
b0 :
b0 F
b0 X
b0 %"
b100 !
b100 +
b100 9
b100 E
b100 V
b100 -"
b1000 ^
b1000 j
b1000 v
b0 W
b0 !"
b0 )"
b1000 U
b1000 ~
b1000 1"
b101 &
b101 0
b101 @
b101 I
b101 [
b101 t
b0 N
0\
b0 $"
b0 ,"
b0 s
1T
b0 f
b0 o
b1000 g
b1000 k
b100 _
b100 h
b100 l
b100 p
b100 }
b100 +"
b0 {
b0 ("
b0 0"
b0 $
b0 /
b0 ;
b0 H
b0 Z
b101 ]
b101 d
b101 r
b0 (
b0 4
b0 =
b0 B
b0 P
b100 '
b100 3
b100 >
b100 A
b100 C
b100 Q
b100 b
b111 3"
1)
#42000
b1000 3"
0)
#47000
b1010 U
b1010 ~
b1010 1"
b1010 Y
b1010 x
b1010 /"
b1 "
b1 ,
b1 :
b1 F
b1 X
b1 %"
b101 !
b101 +
b101 9
b101 E
b101 V
b101 -"
b1010 ^
b1010 j
b1010 v
b1 W
b1 !"
b1 )"
b110 &
b110 0
b110 @
b110 I
b110 [
b110 t
b1 #"
b10001 ,"
b101 `
b101 i
b101 m
b101 q
b101 |
b1 z
1T
b0 f
b0 o
b1010 g
b1010 k
b101 _
b101 h
b101 l
b101 p
b101 }
b101 +"
b1 {
b1 '"
b10001 0"
b1 $
b1 /
b1 ;
b1 H
b1 Z
b110 ]
b110 d
b110 r
b10001 (
b10001 4
b10001 =
b10001 B
b10001 P
b101 '
b101 3
b101 >
b101 A
b101 C
b101 Q
b101 b
b0 #
b0 .
b0 7
b0 D
b0 S
b0 w
b1001 3"
1)
#52000
b1010 3"
0)
#57000
b11110 U
b11110 ~
b11110 1"
b11110 Y
b11110 x
b11110 /"
b100 "
b100 ,
b100 :
b100 F
b100 X
b100 %"
b1111 !
b1111 +
b1111 9
b1111 E
b1111 V
b1111 -"
b11110 ^
b11110 j
b11110 v
b100 W
b100 !"
b100 )"
b111 &
b111 0
b111 @
b111 I
b111 [
b111 t
b100 #"
b1000100 ,"
b1111 `
b1111 i
b1111 m
b1111 q
b1111 |
b100 z
1T
b0 f
b0 o
b11110 g
b11110 k
b1111 _
b1111 h
b1111 l
b1111 p
b1111 }
b1111 +"
b100 {
b100 '"
b1000100 0"
b100 $
b100 /
b100 ;
b100 H
b100 Z
b0 #
b0 .
b0 7
b0 D
b0 S
b0 w
b111 ]
b111 d
b111 r
b1000100 (
b1000100 4
b1000100 =
b1000100 B
b1000100 P
b110 '
b110 3
b110 >
b110 A
b110 C
b110 Q
b110 b
b1011 3"
1)
#62000
b1100 3"
0)
#67000
b1100 U
b1100 ~
b1100 1"
b1100 Y
b1100 x
b1100 /"
b101 "
b101 ,
b101 :
b101 F
b101 X
b101 %"
b110 !
b110 +
b110 9
b110 E
b110 V
b110 -"
b1100 ^
b1100 j
b1100 v
b101 W
b101 !"
b101 )"
b1000 &
b1000 0
b1000 @
b1000 I
b1000 [
b1000 t
b101 #"
b1010101 ,"
b110 `
b110 i
b110 m
b110 q
b110 |
b101 z
1T
b0 f
b0 o
b1100 g
b1100 k
b110 _
b110 h
b110 l
b110 p
b110 }
b110 +"
b101 {
b101 '"
b1010101 0"
b101 $
b101 /
b101 ;
b101 H
b101 Z
b1000 ]
b1000 d
b1000 r
b1010101 (
b1010101 4
b1010101 =
b1010101 B
b1010101 P
b111 '
b111 3
b111 >
b111 A
b111 C
b111 Q
b111 b
b0 #
b0 .
b0 7
b0 D
b0 S
b0 w
b1101 3"
1)
#72000
b1110 3"
0)
#77000
1G
01
1J
b0 U
b0 ~
b0 1"
b100 Y
b100 x
b100 /"
b1010000 O
1a
1R
b10 "
b10 ,
b10 :
b10 F
b10 X
b10 %"
b0 !
b0 +
b0 9
b0 E
b0 V
b0 -"
b1000 ^
b1000 j
b1000 v
b10 W
b10 !"
b10 )"
b1001 &
b1001 0
b1001 @
b1001 I
b1001 [
b1001 t
b1 N
1\
b0 #"
b10 $"
b0 ,"
b10010 s
b100 `
b100 i
b100 m
b100 q
b100 |
b0 z
1T
b0 f
b0 o
b1000 g
b1000 k
b100 _
b100 h
b100 l
b100 p
b100 }
b100 +"
b0 {
b0 '"
b10 ("
b0 0"
b0 $
b0 /
b0 ;
b0 H
b0 Z
b100 #
b100 .
b100 7
b100 D
b100 S
b100 w
b1001 ]
b1001 d
b1001 r
b11001000000000 (
b11001000000000 4
b11001000000000 =
b11001000000000 B
b11001000000000 P
b1000 '
b1000 3
b1000 >
b1000 A
b1000 C
b1000 Q
b1000 b
b1111 3"
1)
#82000
b10000 3"
0)
#87000
b11 "
b11 ,
b11 :
b11 F
b11 X
b11 %"
b1 !
b1 +
b1 9
b1 E
b1 V
b1 -"
b1001 ^
b1001 j
b1001 v
b11 W
b11 !"
b11 )"
b1 U
b1 ~
b1 1"
b101 Y
b101 x
b101 /"
b1010 &
b1010 0
b1010 @
b1010 I
b1010 [
b1010 t
b11 $"
b1 ,"
b10011 s
0T
b11111111 f
b11111111 o
b1001 g
b1001 k
b101 _
b101 h
b101 l
b101 p
b101 }
b101 +"
b1 {
b11 ("
b1 0"
b101 #
b101 .
b101 7
b101 D
b101 S
b101 w
b1 $
b1 /
b1 ;
b1 H
b1 Z
b1010 ]
b1010 d
b1010 r
b11001100000001 (
b11001100000001 4
b11001100000001 =
b11001100000001 B
b11001100000001 P
b1001 '
b1001 3
b1001 >
b1001 A
b1001 C
b1001 Q
b1001 b
b10001 3"
1)
#92000
b10010 3"
0)
#97000
b1111 "
b1111 ,
b1111 :
b1111 F
b1111 X
b1111 %"
b0 !
b0 +
b0 9
b0 E
b0 V
b0 -"
b1000 ^
b1000 j
b1000 v
b1111 W
b1111 !"
b1111 )"
b0 U
b0 ~
b0 1"
b100 Y
b100 x
b100 /"
b1011 &
b1011 0
b1011 @
b1011 I
b1011 [
b1011 t
b1111 $"
b0 ,"
b11111 s
1T
b0 f
b0 o
b1000 g
b1000 k
b100 _
b100 h
b100 l
b100 p
b100 }
b100 +"
b0 {
b1111 ("
b0 0"
b100 #
b100 .
b100 7
b100 D
b100 S
b100 w
b0 $
b0 /
b0 ;
b0 H
b0 Z
b1011 ]
b1011 d
b1011 r
b11111100000000 (
b11111100000000 4
b11111100000000 =
b11111100000000 B
b11111100000000 P
b1010 '
b1010 3
b1010 >
b1010 A
b1010 C
b1010 Q
b1010 b
b10011 3"
1)
#102000
b10100 3"
0)
#107000
0G
0J
1L
1K
b110 O
b11 "
b11 ,
b11 :
b11 F
b11 X
b11 %"
b100101 !
b100101 +
b100101 9
b100101 E
b100101 V
b100101 -"
b11111010 ^
b11111010 j
b11111010 v
b11 W
b11 !"
b11 )"
b100101 U
b100101 ~
b100101 1"
b11111010 Y
b11111010 x
b11111010 /"
b1100 &
b1100 0
b1100 @
b1100 I
b1100 [
b1100 t
b101 N
b10 #"
b11 $"
b100101 ,"
b10011 s
b0 `
b0 i
b0 m
b0 q
b0 |
b10 z
0T
b11111010 f
b11111010 o
b110 g
b110 k
b110 _
b110 h
b110 l
b110 p
b110 }
b110 +"
b101 {
b10 '"
b11 ("
b100101 0"
b110 #
b110 .
b110 7
b110 D
b110 S
b110 w
b101 $
b101 /
b101 ;
b101 H
b101 Z
b1100 ]
b1100 d
b1100 r
b1011001100100101 (
b1011001100100101 4
b1011001100100101 =
b1011001100100101 B
b1011001100100101 P
b1011 '
b1011 3
b1011 >
b1011 A
b1011 C
b1011 Q
b1011 b
b10101 3"
1)
#112000
b10110 3"
0)
#117000
0R
1G
1M
0L
0K
b1111 Y
b1111 x
b1111 /"
b1001000 O
b1000 "
b1000 ,
b1000 :
b1000 F
b1000 X
b1000 %"
b11110100 !
b11110100 +
b11110100 9
b11110100 E
b11110100 V
b11110100 -"
b1111 ^
b1111 j
b1111 v
b1000 W
b1000 !"
b1000 )"
b1111 U
b1111 ~
b1111 1"
b1101 &
b1101 0
b1101 @
b1101 I
b1101 [
b1101 t
b10 N
b1111 #"
b1000 $"
b11110100 ,"
b11000 s
b1111 z
b11110001 f
b11110001 o
b1111 g
b1111 k
b1111 _
b1111 h
b1111 l
b1111 p
b1111 }
b1111 +"
b100 {
b1111 '"
b1000 ("
b11110100 0"
b1111 #
b1111 .
b1111 7
b1111 D
b1111 S
b1111 w
b100 $
b100 /
b100 ;
b100 H
b100 Z
b1101 ]
b1101 d
b1101 r
b101100011110100 (
b101100011110100 4
b101100011110100 =
b101100011110100 B
b101100011110100 P
b1100 '
b1100 3
b1100 >
b1100 A
b1100 C
b1100 Q
b1100 b
b10111 3"
1)
#122000
b11000 3"
0)
#127000
0a
b11110 U
b11110 ~
b11110 1"
0G
11
0M
b11110 Y
b11110 x
b11110 /"
b100000 O
b1111 !
b1111 +
b1111 9
b1111 E
b1111 V
b1111 -"
b11110 ^
b11110 j
b11110 v
b1000 W
b1000 !"
b1000 )"
b1110 &
b1110 0
b1110 @
b1110 I
b1110 [
b1110 t
b0 N
0\
b1000 #"
b0 $"
b10001000 ,"
b0 s
1T
b0 f
b0 o
b11110 g
b11110 k
b1111 `
b1111 i
b1111 m
b1111 q
b1111 |
b1000 z
b1000 {
b1000 '"
b0 ("
b10001000 0"
b0 #
b0 .
b0 7
b0 D
b0 S
b0 w
b1000 $
b1000 /
b1000 ;
b1000 H
b1000 Z
b1110 ]
b1110 d
b1110 r
b10001000 (
b10001000 4
b10001000 =
b10001000 B
b10001000 P
b1101 '
b1101 3
b1101 >
b1101 A
b1101 C
b1101 Q
b1101 b
b11001 3"
1)
#132000
b11010 3"
0)
#137000
b1111 U
b1111 ~
b1111 1"
1G
01
1J
b1111 Y
b1111 x
b1111 /"
b1010000 O
b1111 "
b1111 ,
b1111 :
b1111 F
b1111 X
b1111 %"
b1111 ^
b1111 j
b1111 v
b1111 W
b1111 !"
b1111 )"
b1111 &
b1111 0
b1111 @
b1111 I
b1111 [
b1111 t
b1 N
b1111 #"
b11111000 ,"
0T
b11110001 f
b11110001 o
b1111 g
b1111 k
b0 `
b0 i
b0 m
b0 q
b0 |
b1111 z
b1111 '"
b11111000 0"
b1111 #
b1111 .
b1111 7
b1111 D
b1111 S
b1111 w
b1111 ]
b1111 d
b1111 r
b10000011111000 (
b10000011111000 4
b10000011111000 =
b10000011111000 B
b10000011111000 P
b1110 '
b1110 3
b1110 >
b1110 A
b1110 C
b1110 Q
b1110 b
b11011 3"
1)
#142000
b11100 3"
0)
#147000
1a
0J
1M
b1 U
b1 ~
b1 1"
b1001000 O
b10 "
b10 ,
b10 :
b10 F
b10 X
b10 %"
b1 !
b1 +
b1 9
b1 E
b1 V
b1 -"
b1001 W
b1001 !"
b1001 )"
b1 Y
b1 x
b1 /"
b10000 &
b10000 0
b10000 @
b10000 I
b10000 [
b10000 t
b10 N
b10 #"
b1001 $"
b100011 ,"
b1001 s
b10 z
b1 _
b1 h
b1 l
b1 p
b1 }
b1 +"
b11 {
b10 '"
b1001 ("
b100011 0"
b0 #
b0 .
b0 7
b0 D
b0 S
b0 w
b11 $
b11 /
b11 ;
b11 H
b11 Z
b1 ^
b1 j
b1 v
b10000 ]
b10000 d
b10000 r
b100100100100011 (
b100100100100011 4
b100100100100011 =
b100100100100011 B
b100100100100011 P
b1111 '
b1111 3
b1111 >
b1111 A
b1111 C
b1111 Q
b1111 b
0T
b11111111 f
b11111111 o
b1 g
b1 k
b0 `
b0 i
b0 m
b0 q
b0 |
b11101 3"
1)
#152000
b11110 3"
0)
#157000
0a
b10 U
b10 ~
b10 1"
0G
11
0M
b10 Y
b10 x
b10 /"
b100000 O
b1001 "
b1001 ,
b1001 :
b1001 F
b1001 X
b1001 %"
b10 ^
b10 j
b10 v
b1001 W
b1001 !"
b1001 )"
b10001 &
b10001 0
b10001 @
b10001 I
b10001 [
b10001 t
b0 N
b1001 #"
b0 $"
b10011001 ,"
b0 s
1T
b0 f
b0 o
b10 g
b10 k
b1 `
b1 i
b1 m
b1 q
b1 |
b1001 z
b1001 {
b1001 '"
b0 ("
b10011001 0"
b1001 $
b1001 /
b1001 ;
b1001 H
b1001 Z
b10001 ]
b10001 d
b10001 r
b10011001 (
b10011001 4
b10011001 =
b10011001 B
b10011001 P
b10000 '
b10000 3
b10000 >
b10000 A
b10000 C
b10000 Q
b10000 b
b11111 3"
1)
#162000
b100000 3"
0)
#167000
b1 U
b1 ~
b1 1"
1G
01
1J
b1 Y
b1 x
b1 /"
b1010000 O
b10 "
b10 ,
b10 :
b10 F
b10 X
b10 %"
b1 ^
b1 j
b1 v
b10 W
b10 !"
b10 )"
b10010 &
b10010 0
b10010 @
b10010 I
b10010 [
b10010 t
b1 N
b10 #"
b101001 ,"
0T
b11111111 f
b11111111 o
b1 g
b1 k
b0 `
b0 i
b0 m
b0 q
b0 |
b10 z
b10 '"
b101001 0"
b10010 ]
b10010 d
b10010 r
b10000000101001 (
b10000000101001 4
b10000000101001 =
b10000000101001 B
b10000000101001 P
b10001 '
b10001 3
b10001 >
b10001 A
b10001 C
b10001 Q
b10001 b
b1 #
b1 .
b1 7
b1 D
b1 S
b1 w
b100001 3"
1)
#172000
b100010 3"
0)
#177000
1%
0G
0J
1L
1K
b0 U
b0 ~
b0 1"
b110 O
b0 "
b0 ,
b0 :
b0 F
b0 X
b0 %"
b100 !
b100 +
b100 9
b100 E
b100 V
b100 -"
b0 W
b0 !"
b0 )"
b0 Y
b0 x
b0 /"
b0 ^
b0 j
b0 v
b1011 &
b1011 0
b1011 @
b1011 I
b1011 [
b1011 t
b101 N
b0 #"
b1011 $"
b0 ,"
b1011 s
b0 z
b100 _
b100 h
b100 l
b100 p
b100 }
b100 +"
b0 {
b0 '"
b1011 ("
b0 0"
b100 #
b100 .
b100 7
b100 D
b100 S
b100 w
b0 $
b0 /
b0 ;
b0 H
b0 Z
1T
b0 f
b0 o
b1000 g
b1000 k
b100 `
b100 i
b100 m
b100 q
b100 |
b10011 ]
b10011 d
b10011 r
b1010101100000000 (
b1010101100000000 4
b1010101100000000 =
b1010101100000000 B
b1010101100000000 P
b10010 '
b10010 3
b10010 >
b10010 A
b10010 C
b10010 Q
b10010 b
b100011 3"
1)
#182000
b100100 3"
0)
#187000
b100101 U
b100101 ~
b100101 1"
b11111011 Y
b11111011 x
b11111011 /"
1a
1R
b11 "
b11 ,
b11 :
b11 F
b11 X
b11 %"
b1100 &
b1100 0
b1100 @
b1100 I
b1100 [
b1100 t
b100101 !
b100101 +
b100101 9
b100101 E
b100101 V
b100101 -"
0%
b11111011 ^
b11111011 j
b11111011 v
b11 W
b11 !"
b11 )"
1\
b10 #"
b11 $"
b100101 ,"
b10011 s
b1 `
b1 i
b1 m
b1 q
b1 |
b10 z
0T
b11111011 f
b11111011 o
b111 g
b111 k
b110 _
b110 h
b110 l
b110 p
b110 }
b110 +"
b101 {
b10 '"
b11 ("
b100101 0"
b110 #
b110 .
b110 7
b110 D
b110 S
b110 w
b101 $
b101 /
b101 ;
b101 H
b101 Z
b1100 ]
b1100 d
b1100 r
b1011001100100101 (
b1011001100100101 4
b1011001100100101 =
b1011001100100101 B
b1011001100100101 P
b1011 '
b1011 3
b1011 >
b1011 A
b1011 C
b1011 Q
b1011 b
b100101 3"
1)
#192000
b100110 3"
0)
#197000
0R
1G
1M
0L
0K
b11110 Y
b11110 x
b11110 /"
b1001000 O
b1000 "
b1000 ,
b1000 :
b1000 F
b1000 X
b1000 %"
b11110100 !
b11110100 +
b11110100 9
b11110100 E
b11110100 V
b11110100 -"
0%
b11110 ^
b11110 j
b11110 v
b1000 W
b1000 !"
b1000 )"
b11110 U
b11110 ~
b11110 1"
b1101 &
b1101 0
b1101 @
b1101 I
b1101 [
b1101 t
b10 N
b1111 #"
b1000 $"
b11110100 ,"
b11000 s
1T
b1111 `
b1111 i
b1111 m
b1111 q
b1111 |
b1111 z
b0 f
b0 o
b11110 g
b11110 k
b1111 _
b1111 h
b1111 l
b1111 p
b1111 }
b1111 +"
b100 {
b1111 '"
b1000 ("
b11110100 0"
b1111 #
b1111 .
b1111 7
b1111 D
b1111 S
b1111 w
b100 $
b100 /
b100 ;
b100 H
b100 Z
b1101 ]
b1101 d
b1101 r
b101100011110100 (
b101100011110100 4
b101100011110100 =
b101100011110100 B
b101100011110100 P
b1100 '
b1100 3
b1100 >
b1100 A
b1100 C
b1100 Q
b1100 b
b100111 3"
1)
#202000
b101000 3"
0)
#207000
0a
b111100 U
b111100 ~
b111100 1"
0G
11
0M
b111100 Y
b111100 x
b111100 /"
b100000 O
b11110 !
b11110 +
b11110 9
b11110 E
b11110 V
b11110 -"
b111100 ^
b111100 j
b111100 v
b1000 W
b1000 !"
b1000 )"
b1110 &
b1110 0
b1110 @
b1110 I
b1110 [
b1110 t
b0 N
0\
b1000 #"
b0 $"
b10001000 ,"
b0 s
b11110 `
b11110 i
b11110 m
b11110 q
b11110 |
b1000 z
1T
b0 f
b0 o
b111100 g
b111100 k
b11110 _
b11110 h
b11110 l
b11110 p
b11110 }
b11110 +"
b1000 {
b1000 '"
b0 ("
b10001000 0"
b1000 $
b1000 /
b1000 ;
b1000 H
b1000 Z
b1110 ]
b1110 d
b1110 r
b10001000 (
b10001000 4
b10001000 =
b10001000 B
b10001000 P
b1101 '
b1101 3
b1101 >
b1101 A
b1101 C
b1101 Q
b1101 b
b101001 3"
1)
#212000
b101010 3"
0)
#217000
b11110 U
b11110 ~
b11110 1"
1G
01
1J
b11110 Y
b11110 x
b11110 /"
b1010000 O
b1111 "
b1111 ,
b1111 :
b1111 F
b1111 X
b1111 %"
b101101 ^
b101101 j
b101101 v
b1111 W
b1111 !"
b1111 )"
b1111 &
b1111 0
b1111 @
b1111 I
b1111 [
b1111 t
b1 N
b1111 #"
b11111000 ,"
0T
b11110001 f
b11110001 o
b101101 g
b101101 k
b1111 `
b1111 i
b1111 m
b1111 q
b1111 |
b1111 z
b1111 '"
b11111000 0"
b11110 #
b11110 .
b11110 7
b11110 D
b11110 S
b11110 w
b1111 ]
b1111 d
b1111 r
b10000011111000 (
b10000011111000 4
b10000011111000 =
b10000011111000 B
b10000011111000 P
b1110 '
b1110 3
b1110 >
b1110 A
b1110 C
b1110 Q
b1110 b
b101011 3"
1)
#222000
b101100 3"
0)
