testbench.vcd
$date
	Wed Nov 20 02:55:24 2024
$end
$version
	Icarus Verilog
$end
$timescale
	1ps
$end
$scope module testbench $end
$var wire 5 ! next_inst_addr [4:0] $end
$var wire 5 " inst_addr [4:0] $end
$var wire 8 # data_on_dm [7:0] $end
$var wire 16 $ curr_inst [15:0] $end
$var wire 4 % addr_on_dm [3:0] $end
$var reg 1 & clk $end
$var reg 1 ' reset $end
$scope module dut $end
$var wire 1 & clk $end
$var wire 1 ' reset $end
$var wire 4 ( writeAddress [3:0] $end
$var wire 8 ) writeData [7:0] $end
$var wire 4 * writeAddressDM [3:0] $end
$var wire 8 + readData [7:0] $end
$var wire 4 , readAddress [3:0] $end
$var wire 1 - pcBranch $end
$var wire 5 . next_inst_addr [4:0] $end
$var wire 1 / memWrite $end
$var wire 5 0 inst_addr [4:0] $end
$var wire 1 1 halt $end
$var wire 8 2 data_on_dm [7:0] $end
$var wire 16 3 curr_inst [15:0] $end
$var reg 4 4 addr_on_dm [3:0] $end
$scope module dm $end
$var wire 1 & clk $end
$var wire 4 5 readAddress1 [3:0] $end
$var wire 4 6 readAddress2 [3:0] $end
$var wire 8 7 readData1 [7:0] $end
$var wire 8 8 readData2 [7:0] $end
$var wire 1 ' reset $end
$var wire 4 9 writeAddress [3:0] $end
$var wire 1 / writeEnable $end
$var wire 8 : writeData [7:0] $end
$scope begin $ivl_for_loop1 $end
$var integer 32 ; i [31:0] $end
$upscope $end
$upscope $end
$scope module im $end
$var wire 16 < readData [15:0] $end
$var wire 5 = readAddress [4:0] $end
$upscope $end
$scope module pc $end
$var wire 1 & clk $end
$var wire 1 > enable $end
$var wire 1 ' reset $end
$var wire 1 - pcSrc $end
$var wire 5 ? nextInstructionAddress [4:0] $end
$var wire 1 1 halt $end
$var reg 5 @ currentInstructionAddress [4:0] $end
$upscope $end
$scope module spc $end
$var wire 1 & clk $end
$var wire 5 A currentInstructionAddress [4:0] $end
$var wire 8 B dataFromMemory [7:0] $end
$var wire 16 C instruction [15:0] $end
$var wire 1 ' reset $end
$var wire 8 D writeDataDM [7:0] $end
$var wire 4 E writeAddressDM [3:0] $end
$var wire 1 F regWrite $end
$var wire 1 - pcBranch $end
$var wire 5 G nextInstructionAddress [4:0] $end
$var wire 1 / memWrite $end
$var wire 1 H memToReg $end
$var wire 1 1 halt $end
$var wire 1 I branch $end
$var wire 1 J aluF $end
$var wire 1 K addition $end
$scope module cc $end
$var wire 3 L op [2:0] $end
$var wire 1 F regWrite $end
$var wire 1 / memWrite $end
$var wire 1 H memToReg $end
$var wire 1 1 halt $end
$var wire 1 I branch $end
$var wire 1 J aluF $end
$var wire 1 K addition $end
$var reg 7 M controls [6:0] $end
$upscope $end
$scope module dp $end
$var wire 1 K addition $end
$var wire 1 J aluF $end
$var wire 1 I branch $end
$var wire 1 & clk $end
$var wire 5 N currentInstructionAddress [4:0] $end
$var wire 8 O dataFromMemory [7:0] $end
$var wire 1 P immbit_notAddition $end
$var wire 16 Q instruction [15:0] $end
$var wire 1 H memToReg $end
$var wire 1 - pcBranch $end
$var wire 1 F regWrite $end
$var wire 1 ' reset $end
$var wire 1 R zero $end
$var wire 8 S writeDataRF [7:0] $end
$var wire 8 T writeDataDM [7:0] $end
$var wire 4 U writeAddressRF [3:0] $end
$var wire 4 V writeAddressDM [3:0] $end
$var wire 8 W resMuxOutput [7:0] $end
$var wire 5 X nextInstructionAddress [4:0] $end
$var wire 1 Y immbit $end
$var wire 8 Z aluResult [7:0] $end
$var wire 8 [ aluB [7:0] $end
$var wire 8 \ aluA [7:0] $end
$var wire 5 ] addressPlus1 [4:0] $end
$var reg 1 ^ immbit_addition $end
$scope module a1 $end
$var wire 5 _ a [4:0] $end
$var wire 5 ` b [4:0] $end
$var wire 5 a c [4:0] $end
$var parameter 32 b WIDTH $end
$upscope $end
$scope module alu $end
$var wire 1 J f $end
$var wire 1 R zero $end
$var wire 8 c q [7:0] $end
$var wire 8 d p [7:0] $end
$var wire 8 e b [7:0] $end
$var wire 8 f a [7:0] $end
$var reg 8 g y [7:0] $end
$scope module add $end
$var wire 8 h c [7:0] $end
$var wire 8 i b [7:0] $end
$var wire 8 j a [7:0] $end
$var parameter 32 k WIDTH $end
$upscope $end
$scope module sub $end
$var wire 8 l c [7:0] $end
$var wire 8 m b [7:0] $end
$var wire 8 n a [7:0] $end
$upscope $end
$upscope $end
$scope module pcMux $end
$var wire 5 o d0 [4:0] $end
$var wire 5 p d1 [4:0] $end
$var wire 1 - s $end
$var wire 5 q y [4:0] $end
$var parameter 32 r WIDTH $end
$upscope $end
$scope module resMux $end
$var wire 8 s d0 [7:0] $end
$var wire 8 t d1 [7:0] $end
$var wire 1 H s $end
$var wire 8 u y [7:0] $end
$var parameter 32 v WIDTH $end
$upscope $end
$scope module rf $end
$var wire 1 & clk $end
$var wire 4 w readAddress1 [3:0] $end
$var wire 4 x readAddress2 [3:0] $end
$var wire 8 y readData1 [7:0] $end
$var wire 8 z readData2 [7:0] $end
$var wire 1 ' reset $end
$var wire 1 F writeEnable $end
$var wire 8 { writeData [7:0] $end
$var wire 4 | writeAddress [3:0] $end
$scope begin $ivl_for_loop2 $end
$var integer 32 } i [31:0] $end
$upscope $end
$upscope $end
$scope module waDM_Mux $end
$var wire 4 ~ d0 [3:0] $end
$var wire 4 !" d1 [3:0] $end
$var wire 1 Y s $end
$var wire 4 "" y [3:0] $end
$var parameter 32 #" WIDTH $end
$upscope $end
$scope module waRF_Mux $end
$var wire 4 $" d0 [3:0] $end
$var wire 4 %" d1 [3:0] $end
$var wire 1 ^ s $end
$var wire 4 &" y [3:0] $end
$var parameter 32 '" WIDTH $end
$upscope $end
$scope module wdDM_Mux $end
$var wire 8 (" d0 [7:0] $end
$var wire 8 )" d1 [7:0] $end
$var wire 1 Y s $end
$var wire 8 *" y [7:0] $end
$var parameter 32 +" WIDTH $end
$upscope $end
$scope module wdRF_Mux $end
$var wire 8 ," d0 [7:0] $end
$var wire 8 -" d1 [7:0] $end
$var wire 1 P s $end
$var wire 8 ." y [7:0] $end
$var parameter 32 /" WIDTH $end
$upscope $end
$upscope $end
$upscope $end
$upscope $end
$scope begin $ivl_for_loop0 $end
$var integer 32 0" i [31:0] $end
$upscope $end
$upscope $end
$enddefinitions $end
$comment Show the parameter values. $end
$dumpall
b1000 /"
b1000 +"
b100 '"
b100 #"
b1000 v
b101 r
b1000 k
b101 b
$end
#0
$dumpvars
b0 0"
bx ."
bx -"
bx ,"
bx *"
bx )"
bx ("
bx &"
bx %"
bx $"
bx ""
bx !"
bx ~
b0 }
bx |
bx {
bx z
bx y
bx x
bx w
bx u
bx t
bx s
bx q
bx p
bx o
bx n
bx m
bx l
bx j
bx i
bx h
bx g
bx f
bx e
bx d
bx c
bx a
b1 `
bx _
0^
bx ]
bx \
bx [
bx Z
xY
bx X
bx W
bx V
bx U
bx T
bx S
xR
bx Q
xP
bx O
bx N
bx M
bx L
xK
xJ
xI
xH
bx G
xF
bx E
bx D
bx C
bx B
bx A
bx @
bx ?
1>
bx =
bx <
b0 ;
bx :
bx 9
bx 8
bx 7
bx 6
bx 5
bx 4
bx 3
bx 2
x1
bx 0
x/
bx .
x-
bx ,
bx +
bx *
bx )
bx (
1'
0&
bx %
bx $
bx #
bx "
bx !
$end
#1000
b100 S
b100 {
b100 ."
b0 W
b0 u
b0 ,"
1P
b0 Z
b0 g
b0 s
0-
1F
0/
1H
0K
0J
0I
01
b1010000 M
1^
b0 (
b0 9
b0 *
b0 E
b0 V
b0 ""
b100 )
b100 :
b100 D
b100 T
b100 *"
b0 U
b0 |
b0 &"
b1 !
b1 .
b1 ?
b1 G
b1 X
b1 q
b1 L
1Y
b0 ~
b0 !"
b100 )"
b10000 p
1R
b0 c
b0 l
b0 d
b0 h
b0 \
b0 f
b0 j
b0 n
b0 y
b0 w
b0 [
b0 e
b0 i
b0 m
b0 z
b0 ("
b100 x
b0 $"
b0 %"
b100 -"
b0 +
b0 7
b0 B
b0 O
b0 t
b100 ,
b100 5
b1 ]
b1 a
b1 o
b11000000000100 $
b11000000000100 3
b11000000000100 <
b11000000000100 C
b11000000000100 Q
b0 "
b0 0
b0 =
b0 @
b0 A
b0 N
b0 _
b10000 ;
b10000 }
1&
#2000
0'
#7000
b1 0"
0&
#12000
b1 (
b1 9
b1 *
b1 E
b1 V
b1 ""
b101 )
b101 :
b101 D
b101 T
b101 *"
b1 U
b1 |
b1 &"
b101 S
b101 {
b101 ."
b10 !
b10 .
b10 ?
b10 G
b10 X
b10 q
b1 !"
b101 )"
b10001 p
b101 x
b1 %"
b101 -"
b101 ,
b101 5
b100 Z
b100 g
b100 s
b10 ]
b10 a
b10 o
b11000100000101 $
b11000100000101 3
b11000100000101 <
b11000100000101 C
b11000100000101 Q
b1 "
b1 0
b1 =
b1 @
b1 A
b1 N
b1 _
0R
b100 c
b100 l
b100 d
b100 h
b100 \
b100 f
b100 j
b100 n
b100 y
b10 0"
1&
#17000
b11 0"
0&
#22000
b100 (
b100 9
b100 *
b100 E
b100 V
b100 ""
b1111 )
b1111 :
b1111 D
b1111 T
b1111 *"
b100 U
b100 |
b100 &"
b1111 S
b1111 {
b1111 ."
b11 !
b11 .
b11 ?
b11 G
b11 X
b11 q
b100 !"
b1111 )"
b10100 p
b1111 x
b100 %"
b1111 -"
b1111 ,
b1111 5
b11 ]
b11 a
b11 o
b11010000001111 $
b11010000001111 3
b11010000001111 <
b11010000001111 C
b11010000001111 Q
b10 "
b10 0
b10 =
b10 @
b10 A
b10 N
b10 _
b100 0"
1&
#27000
b101 0"
0&
#32000
b101 (
b101 9
b101 *
b101 E
b101 V
b101 ""
b110 )
b110 :
b110 D
b110 T
b110 *"
b101 U
b101 |
b101 &"
b110 S
b110 {
b110 ."
b100 !
b100 .
b100 ?
b100 G
b100 X
b100 q
b101 !"
b110 )"
b10101 p
b110 x
b101 %"
b110 -"
b110 ,
b110 5
b100 ]
b100 a
b100 o
b11010100000110 $
b11010100000110 3
b11010100000110 <
b11010100000110 C
b11010100000110 Q
b11 "
b11 0
b11 =
b11 @
b11 A
b11 N
b11 _
b110 0"
1&
#37000
b111 0"
0&
#42000
b1000 W
b1000 u
b1000 ,"
0F
1/
0H
b100000 M
0^
0P
b0 (
b0 9
b0 *
b0 E
b0 V
b0 ""
b100 )
b100 :
b100 D
b100 T
b100 *"
b1000 Z
b1000 g
b1000 s
b0 U
b0 |
b0 &"
b1000 S
b1000 {
b1000 ."
b101 !
b101 .
b101 ?
b101 G
b101 X
b101 q
b0 L
0Y
b0 !"
b0 )"
b0 p
1R
b0 c
b0 l
b1000 d
b1000 h
b100 [
b100 e
b100 i
b100 m
b100 z
b100 ("
b0 x
b0 %"
b0 -"
b0 ,
b0 5
b101 ]
b101 a
b101 o
b0 $
b0 3
b0 <
b0 C
b0 Q
b100 "
b100 0
b100 =
b100 @
b100 A
b100 N
b100 _
b1000 0"
1&
#47000
b1001 0"
0&
#52000
b1010 S
b1010 {
b1010 ."
b1010 W
b1010 u
b1010 ,"
b1 (
b1 9
b1 *
b1 E
b1 V
b1 ""
b101 )
b101 :
b101 D
b101 T
b101 *"
b1010 Z
b1010 g
b1010 s
b1 U
b1 |
b1 &"
b110 !
b110 .
b110 ?
b110 G
b110 X
b110 q
b1 ~
b10001 )"
b101 \
b101 f
b101 j
b101 n
b101 y
b1 w
1R
b0 c
b0 l
b1010 d
b1010 h
b101 [
b101 e
b101 i
b101 m
b101 z
b101 ("
b1 x
b1 $"
b10001 -"
b1 ,
b1 5
b110 ]
b110 a
b110 o
b10001 $
b10001 3
b10001 <
b10001 C
b10001 Q
b101 "
b101 0
b101 =
b101 @
b101 A
b101 N
b101 _
b0 +
b0 7
b0 B
b0 O
b0 t
b1010 0"
1&
#57000
b1011 0"
0&
#62000
b11110 S
b11110 {
b11110 ."
b11110 W
b11110 u
b11110 ,"
b100 (
b100 9
b100 *
b100 E
b100 V
b100 ""
b1111 )
b1111 :
b1111 D
b1111 T
b1111 *"
b11110 Z
b11110 g
b11110 s
b100 U
b100 |
b100 &"
b111 !
b111 .
b111 ?
b111 G
b111 X
b111 q
b100 ~
b1000100 )"
b1111 \
b1111 f
b1111 j
b1111 n
b1111 y
b100 w
1R
b0 c
b0 l
b11110 d
b11110 h
b1111 [
b1111 e
b1111 i
b1111 m
b1111 z
b1111 ("
b100 x
b100 $"
b1000100 -"
b100 ,
b100 5
b0 +
b0 7
b0 B
b0 O
b0 t
b111 ]
b111 a
b111 o
b1000100 $
b1000100 3
b1000100 <
b1000100 C
b1000100 Q
b110 "
b110 0
b110 =
b110 @
b110 A
b110 N
b110 _
b1100 0"
1&
#67000
b1101 0"
0&
#72000
b1100 S
b1100 {
b1100 ."
b1100 W
b1100 u
b1100 ,"
b101 (
b101 9
b101 *
b101 E
b101 V
b101 ""
b110 )
b110 :
b110 D
b110 T
b110 *"
b1100 Z
b1100 g
b1100 s
b101 U
b101 |
b101 &"
b1000 !
b1000 .
b1000 ?
b1000 G
b1000 X
b1000 q
b101 ~
b1010101 )"
b110 \
b110 f
b110 j
b110 n
b110 y
b101 w
1R
b0 c
b0 l
b1100 d
b1100 h
b110 [
b110 e
b110 i
b110 m
b110 z
b110 ("
b101 x
b101 $"
b1010101 -"
b101 ,
b101 5
b1000 ]
b1000 a
b1000 o
b1010101 $
b1010101 3
b1010101 <
b1010101 C
b1010101 Q
b111 "
b111 0
b111 =
b111 @
b111 A
b111 N
b111 _
b0 +
b0 7
b0 B
b0 O
b0 t
b1110 0"
1&
#77000
b1111 0"
0&
#82000
1F
0/
1H
b0 S
b0 {
b0 ."
b100 W
b100 u
b100 ,"
b1010000 M
1^
1P
b10 (
b10 9
b10 *
b10 E
b10 V
b10 ""
b0 )
b0 :
b0 D
b0 T
b0 *"
b1000 Z
b1000 g
b1000 s
b10 U
b10 |
b10 &"
b1001 !
b1001 .
b1001 ?
b1001 G
b1001 X
b1001 q
b1 L
1Y
b0 ~
b10 !"
b0 )"
b10010 p
b100 \
b100 f
b100 j
b100 n
b100 y
b0 w
1R
b0 c
b0 l
b1000 d
b1000 h
b100 [
b100 e
b100 i
b100 m
b100 z
b100 ("
b0 x
b0 $"
b10 %"
b0 -"
b0 ,
b0 5
b100 +
b100 7
b100 B
b100 O
b100 t
b1001 ]
b1001 a
b1001 o
b11001000000000 $
b11001000000000 3
b11001000000000 <
b11001000000000 C
b11001000000000 Q
b1000 "
b1000 0
b1000 =
b1000 @
b1000 A
b1000 N
b1000 _
b10000 0"
1&
#87000
b10001 0"
0&
#92000
b11 (
b11 9
b11 *
b11 E
b11 V
b11 ""
b1 )
b1 :
b1 D
b1 T
b1 *"
b1001 Z
b1001 g
b1001 s
b11 U
b11 |
b11 &"
b1 S
b1 {
b1 ."
b101 W
b101 u
b101 ,"
b1010 !
b1010 .
b1010 ?
b1010 G
b1010 X
b1010 q
b11 !"
b1 )"
b10011 p
0R
b11111111 c
b11111111 l
b1001 d
b1001 h
b101 [
b101 e
b101 i
b101 m
b101 z
b101 ("
b1 x
b11 %"
b1 -"
b101 +
b101 7
b101 B
b101 O
b101 t
b1 ,
b1 5
b1010 ]
b1010 a
b1010 o
b11001100000001 $
b11001100000001 3
b11001100000001 <
b11001100000001 C
b11001100000001 Q
b1001 "
b1001 0
b1001 =
b1001 @
b1001 A
b1001 N
b1001 _
b10010 0"
1&
#97000
b10011 0"
0&
#102000
b1111 (
b1111 9
b1111 *
b1111 E
b1111 V
b1111 ""
b0 )
b0 :
b0 D
b0 T
b0 *"
b1000 Z
b1000 g
b1000 s
b1111 U
b1111 |
b1111 &"
b0 S
b0 {
b0 ."
b100 W
b100 u
b100 ,"
b1011 !
b1011 .
b1011 ?
b1011 G
b1011 X
b1011 q
b1111 !"
b0 )"
b11111 p
1R
b0 c
b0 l
b1000 d
b1000 h
b100 [
b100 e
b100 i
b100 m
b100 z
b100 ("
b0 x
b1111 %"
b0 -"
b100 +
b100 7
b100 B
b100 O
b100 t
b0 ,
b0 5
b1011 ]
b1011 a
b1011 o
b11111100000000 $
b11111100000000 3
b11111100000000 <
b11111100000000 C
b11111100000000 Q
b1010 "
b1010 0
b1010 =
b1010 @
b1010 A
b1010 N
b1010 _
b10100 0"
1&
#107000
b10101 0"
0&
#112000
0F
0H
1J
1I
b110 M
b11 (
b11 9
b11 *
b11 E
b11 V
b11 ""
b100101 )
b100101 :
b100101 D
b100101 T
b100101 *"
b11111010 Z
b11111010 g
b11111010 s
b11 U
b11 |
b11 &"
b100101 S
b100101 {
b100101 ."
b11111010 W
b11111010 u
b11111010 ,"
b1100 !
b1100 .
b1100 ?
b1100 G
b1100 X
b1100 q
b101 L
b10 ~
b11 !"
b100101 )"
b10011 p
b0 \
b0 f
b0 j
b0 n
b0 y
b10 w
0R
b11111010 c
b11111010 l
b110 d
b110 h
b110 [
b110 e
b110 i
b110 m
b110 z
b110 ("
b101 x
b10 $"
b11 %"
b100101 -"
b110 +
b110 7
b110 B
b110 O
b110 t
b101 ,
b101 5
b1100 ]
b1100 a
b1100 o
b1011001100100101 $
b1011001100100101 3
b1011001100100101 <
b1011001100100101 C
b1011001100100101 Q
b1011 "
b1011 0
b1011 =
b1011 @
b1011 A
b1011 N
b1011 _
b10110 0"
1&
#117000
b10111 0"
0&
#122000
0P
1F
1K
0J
0I
b1111 W
b1111 u
b1111 ,"
b1001000 M
b1000 (
b1000 9
b1000 *
b1000 E
b1000 V
b1000 ""
b11110100 )
b11110100 :
b11110100 D
b11110100 T
b11110100 *"
b1111 Z
b1111 g
b1111 s
b1000 U
b1000 |
b1000 &"
b1111 S
b1111 {
b1111 ."
b1101 !
b1101 .
b1101 ?
b1101 G
b1101 X
b1101 q
b10 L
b1111 ~
b1000 !"
b11110100 )"
b11000 p
b1111 w
b11110001 c
b11110001 l
b1111 d
b1111 h
b1111 [
b1111 e
b1111 i
b1111 m
b1111 z
b1111 ("
b100 x
b1111 $"
b1000 %"
b11110100 -"
b1111 +
b1111 7
b1111 B
b1111 O
b1111 t
b100 ,
b100 5
b1101 ]
b1101 a
b1101 o
b101100011110100 $
b101100011110100 3
b101100011110100 <
b101100011110100 C
b101100011110100 Q
b1100 "
b1100 0
b1100 =
b1100 @
b1100 A
b1100 N
b1100 _
b11000 0"
1&
#127000
b11001 0"
0&
#132000
0^
b11110 S
b11110 {
b11110 ."
0F
1/
0K
b11110 W
b11110 u
b11110 ,"
b100000 M
b1111 )
b1111 :
b1111 D
b1111 T
b1111 *"
b11110 Z
b11110 g
b11110 s
b1000 U
b1000 |
b1000 &"
b1110 !
b1110 .
b1110 ?
b1110 G
b1110 X
b1110 q
b0 L
0Y
b1000 ~
b0 !"
b10001000 )"
b0 p
1R
b0 c
b0 l
b11110 d
b11110 h
b1111 \
b1111 f
b1111 j
b1111 n
b1111 y
b1000 w
b1000 x
b1000 $"
b0 %"
b10001000 -"
b0 +
b0 7
b0 B
b0 O
b0 t
b1000 ,
b1000 5
b1110 ]
b1110 a
b1110 o
b10001000 $
b10001000 3
b10001000 <
b10001000 C
b10001000 Q
b1101 "
b1101 0
b1101 =
b1101 @
b1101 A
b1101 N
b1101 _
b11010 0"
1&
#137000
b11011 0"
0&
#142000
b1111 S
b1111 {
b1111 ."
1F
0/
1H
b1111 W
b1111 u
b1111 ,"
b1010000 M
b1111 (
b1111 9
b1111 *
b1111 E
b1111 V
b1111 ""
b1111 Z
b1111 g
b1111 s
b1111 U
b1111 |
b1111 &"
b1111 !
b1111 .
b1111 ?
b1111 G
b1111 X
b1111 q
b1 L
b1111 ~
b11111000 )"
0R
b11110001 c
b11110001 l
b1111 d
b1111 h
b0 \
b0 f
b0 j
b0 n
b0 y
b1111 w
b1111 $"
b11111000 -"
b1111 +
b1111 7
b1111 B
b1111 O
b1111 t
b1111 ]
b1111 a
b1111 o
b10000011111000 $
b10000011111000 3
b10000011111000 <
b10000011111000 C
b10000011111000 Q
b1110 "
b1110 0
b1110 =
b1110 @
b1110 A
b1110 N
b1110 _
b11100 0"
1&
#147000
b11101 0"
0&
#152000
1^
0H
1K
b1 S
b1 {
b1 ."
b1001000 M
b10 (
b10 9
b10 *
b10 E
b10 V
b10 ""
b1 )
b1 :
b1 D
b1 T
b1 *"
b1001 U
b1001 |
b1001 &"
b1 W
b1 u
b1 ,"
b10000 !
b10000 .
b10000 ?
b10000 G
b10000 X
b10000 q
b10 L
b10 ~
b1001 !"
b100011 )"
b1001 p
b10 w
b1 [
b1 e
b1 i
b1 m
b1 z
b1 ("
b11 x
b10 $"
b1001 %"
b100011 -"
b0 +
b0 7
b0 B
b0 O
b0 t
b11 ,
b11 5
b1 Z
b1 g
b1 s
b10000 ]
b10000 a
b10000 o
b100100100100011 $
b100100100100011 3
b100100100100011 <
b100100100100011 C
b100100100100011 Q
b1111 "
b1111 0
b1111 =
b1111 @
b1111 A
b1111 N
b1111 _
0R
b11111111 c
b11111111 l
b1 d
b1 h
b0 \
b0 f
b0 j
b0 n
b0 y
b11110 0"
1&
#157000
b11111 0"
0&
#162000
0^
b10 S
b10 {
b10 ."
0F
1/
0K
b10 W
b10 u
b10 ,"
b100000 M
b1001 (
b1001 9
b1001 *
b1001 E
b1001 V
b1001 ""
b10 Z
b10 g
b10 s
b1001 U
b1001 |
b1001 &"
b10001 !
b10001 .
b10001 ?
b10001 G
b10001 X
b10001 q
b0 L
b1001 ~
b0 !"
b10011001 )"
b0 p
1R
b0 c
b0 l
b10 d
b10 h
b1 \
b1 f
b1 j
b1 n
b1 y
b1001 w
b1001 x
b1001 $"
b0 %"
b10011001 -"
b1001 ,
b1001 5
b10001 ]
b10001 a
b10001 o
b10011001 $
b10011001 3
b10011001 <
b10011001 C
b10011001 Q
b10000 "
b10000 0
b10000 =
b10000 @
b10000 A
b10000 N
b10000 _
b100000 0"
1&
#167000
b100001 0"
0&
#172000
b1 S
b1 {
b1 ."
1F
0/
1H
b1 W
b1 u
b1 ,"
b1010000 M
b10 (
b10 9
b10 *
b10 E
b10 V
b10 ""
b1 Z
b1 g
b1 s
b10 U
b10 |
b10 &"
b10010 !
b10010 .
b10010 ?
b10010 G
b10010 X
b10010 q
b1 L
b10 ~
b101001 )"
0R
b11111111 c
b11111111 l
b1 d
b1 h
b0 \
b0 f
b0 j
b0 n
b0 y
b10 w
b10 $"
b101001 -"
b10010 ]
b10010 a
b10010 o
b10000000101001 $
b10000000101001 3
b10000000101001 <
b10000000101001 C
b10000000101001 Q
b10001 "
b10001 0
b10001 =
b10001 @
b10001 A
b10001 N
b10001 _
b1 +
b1 7
b1 B
b1 O
b1 t
b100010 0"
1&
#177000
b100011 0"
0&
#182000
1-
0F
0H
1J
1I
b0 S
b0 {
b0 ."
b110 M
b0 (
b0 9
b0 *
b0 E
b0 V
b0 ""
b100 )
b100 :
b100 D
b100 T
b100 *"
b0 U
b0 |
b0 &"
b0 W
b0 u
b0 ,"
b0 Z
b0 g
b0 s
b1011 !
b1011 .
b1011 ?
b1011 G
b1011 X
b1011 q
b101 L
b0 ~
b1011 !"
b0 )"
b1011 p
b0 w
b100 [
b100 e
b100 i
b100 m
b100 z
b100 ("
b0 x
b0 $"
b1011 %"
b0 -"
b100 +
b100 7
b100 B
b100 O
b100 t
b0 ,
b0 5
1R
b0 c
b0 l
b1000 d
b1000 h
b100 \
b100 f
b100 j
b100 n
b100 y
b10011 ]
b10011 a
b10011 o
b1010101100000000 $
b1010101100000000 3
b1010101100000000 <
b1010101100000000 C
b1010101100000000 Q
b10010 "
b10010 0
b10010 =
b10010 @
b10010 A
b10010 N
b10010 _
b100100 0"
1&
#187000
b100101 0"
0&
#192000
b100101 S
b100101 {
b100101 ."
b11111011 W
b11111011 u
b11111011 ,"
1^
1P
b11 (
b11 9
b11 *
b11 E
b11 V
b11 ""
b1100 !
b1100 .
b1100 ?
b1100 G
b1100 X
b1100 q
b100101 )
b100101 :
b100101 D
b100101 T
b100101 *"
0-
b11111011 Z
b11111011 g
b11111011 s
b11 U
b11 |
b11 &"
1Y
b10 ~
b11 !"
b100101 )"
b10011 p
b1 \
b1 f
b1 j
b1 n
b1 y
b10 w
0R
b11111011 c
b11111011 l
b111 d
b111 h
b110 [
b110 e
b110 i
b110 m
b110 z
b110 ("
b101 x
b10 $"
b11 %"
b100101 -"
b110 +
b110 7
b110 B
b110 O
b110 t
b101 ,
b101 5
b1100 ]
b1100 a
b1100 o
b1011001100100101 $
b1011001100100101 3
b1011001100100101 <
b1011001100100101 C
b1011001100100101 Q
b1011 "
b1011 0
b1011 =
b1011 @
b1011 A
b1011 N
b1011 _
b100110 0"
1&
#197000
b100111 0"
0&
#202000
0P
1F
1K
0J
0I
b11110 W
b11110 u
b11110 ,"
b1001000 M
b1000 (
b1000 9
b1000 *
b1000 E
b1000 V
b1000 ""
b11110100 )
b11110100 :
b11110100 D
b11110100 T
b11110100 *"
0-
b11110 Z
b11110 g
b11110 s
b1000 U
b1000 |
b1000 &"
b11110 S
b11110 {
b11110 ."
b1101 !
b1101 .
b1101 ?
b1101 G
b1101 X
b1101 q
b10 L
b1111 ~
b1000 !"
b11110100 )"
b11000 p
1R
b1111 \
b1111 f
b1111 j
b1111 n
b1111 y
b1111 w
b0 c
b0 l
b11110 d
b11110 h
b1111 [
b1111 e
b1111 i
b1111 m
b1111 z
b1111 ("
b100 x
b1111 $"
b1000 %"
b11110100 -"
b1111 +
b1111 7
b1111 B
b1111 O
b1111 t
b100 ,
b100 5
b1101 ]
b1101 a
b1101 o
b101100011110100 $
b101100011110100 3
b101100011110100 <
b101100011110100 C
b101100011110100 Q
b1100 "
b1100 0
b1100 =
b1100 @
b1100 A
b1100 N
b1100 _
b101000 0"
1&
#207000
b101001 0"
0&
#212000
0^
b111100 S
b111100 {
b111100 ."
0F
1/
0K
b111100 W
b111100 u
b111100 ,"
b100000 M
b11110 )
b11110 :
b11110 D
b11110 T
b11110 *"
b111100 Z
b111100 g
b111100 s
b1000 U
b1000 |
b1000 &"
b1110 !
b1110 .
b1110 ?
b1110 G
b1110 X
b1110 q
b0 L
0Y
b1000 ~
b0 !"
b10001000 )"
b0 p
b11110 \
b11110 f
b11110 j
b11110 n
b11110 y
b1000 w
1R
b0 c
b0 l
b111100 d
b111100 h
b11110 [
b11110 e
b11110 i
b11110 m
b11110 z
b11110 ("
b1000 x
b1000 $"
b0 %"
b10001000 -"
b1000 ,
b1000 5
b1110 ]
b1110 a
b1110 o
b10001000 $
b10001000 3
b10001000 <
b10001000 C
b10001000 Q
b1101 "
b1101 0
b1101 =
b1101 @
b1101 A
b1101 N
b1101 _
b101010 0"
1&
#217000
b101011 0"
0&
#222000
b11110 S
b11110 {
b11110 ."
1F
0/
1H
b11110 W
b11110 u
b11110 ,"
b1010000 M
b1111 (
b1111 9
b1111 *
b1111 E
b1111 V
b1111 ""
b101101 Z
b101101 g
b101101 s
b1111 U
b1111 |
b1111 &"
b1111 !
b1111 .
b1111 ?
b1111 G
b1111 X
b1111 q
b1 L
b1111 ~
b11111000 )"
0R
b11110001 c
b11110001 l
b101101 d
b101101 h
b1111 \
b1111 f
b1111 j
b1111 n
b1111 y
b1111 w
b1111 $"
b11111000 -"
b11110 +
b11110 7
b11110 B
b11110 O
b11110 t
b1111 ]
b1111 a
b1111 o
b10000011111000 $
b10000011111000 3
b10000011111000 <
b10000011111000 C
b10000011111000 Q
b1110 "
b1110 0
b1110 =
b1110 @
b1110 A
b1110 N
b1110 _
b101100 0"
1&
#227000
b101101 0"
0&
#232000
1^
0H
1K
b10 S
b10 {
b10 ."
b1001000 M
b10 (
b10 9
b10 *
b10 E
b10 V
b10 ""
b1 )
b1 :
b1 D
b1 T
b1 *"
b1001 U
b1001 |
b1001 &"
b10 W
b10 u
b10 ,"
b10000 !
b10000 .
b10000 ?
b10000 G
b10000 X
b10000 q
b10 L
b10 ~
b1001 !"
b100011 )"
b1001 p
b10 w
b1 [
b1 e
b1 i
b1 m
b1 z
b1 ("
b11 x
b10 $"
b1001 %"
b100011 -"
b0 +
b0 7
b0 B
b0 O
b0 t
b11 ,
b11 5
b10 Z
b10 g
b10 s
b10000 ]
b10000 a
b10000 o
b100100100100011 $
b100100100100011 3
b100100100100011 <
b100100100100011 C
b100100100100011 Q
b1111 "
b1111 0
b1111 =
b1111 @
b1111 A
b1111 N
b1111 _
1R
b0 c
b0 l
b10 d
b10 h
b1 \
b1 f
b1 j
b1 n
b1 y
b101110 0"
1&
#237000
b101111 0"
0&
#242000
0^
b100 S
b100 {
b100 ."
0F
1/
0K
b100 W
b100 u
b100 ,"
b100000 M
b1001 (
b1001 9
b1001 *
b1001 E
b1001 V
b1001 ""
b10 )
b10 :
b10 D
b10 T
b10 *"
b100 Z
b100 g
b100 s
b1001 U
b1001 |
b1001 &"
b10001 !
b10001 .
b10001 ?
b10001 G
b10001 X
b10001 q
b0 L
b1001 ~
b0 !"
b10011001 )"
b0 p
b10 \
b10 f
b10 j
b10 n
b10 y
b1001 w
1R
b0 c
b0 l
b100 d
b100 h
b10 [
b10 e
b10 i
b10 m
b10 z
b10 ("
b1001 x
b1001 $"
b0 %"
b10011001 -"
b1 +
b1 7
b1 B
b1 O
b1 t
b1001 ,
b1001 5
b10001 ]
b10001 a
b10001 o
b10011001 $
b10011001 3
b10011001 <
b10011001 C
b10011001 Q
b10000 "
b10000 0
b10000 =
b10000 @
b10000 A
b10000 N
b10000 _
b110000 0"
1&
#247000
b110001 0"
0&
